{
    "4": {"code": "AI", "name": "Все включено"},
    "2": {"code": "FB", "name": "Полный пансион"},
    "5": {"code": "HB", "name": "Завтрак и ужин"},
    "1": {"code": "BB", "name": "Только завтрак"},
    "3": {"code": "RO", "name": "Без питания"}
}