<?xml version="1.0" encoding="utf-8"?>
<!-- Generator: Adobe Illustrator 21.1.0, SVG Export Plug-In . SVG Version: 6.00 Build 0)  -->
<svg version="1.1" id="Capa_1" xmlns="http://www.w3.org/2000/svg" xmlns:xlink="http://www.w3.org/1999/xlink" x="0px" y="0px"
	 viewBox="0 0 512 512" style="enable-background:new 0 0 512 512;" xml:space="preserve">
<style type="text/css">
	.st0{fill:#E53935;}
</style>
<g>
	<g>
		<path class="st0" d="M194.7,61.5c-15.5-31.1-61.5-24.9-68.5,9c-4.9-2.3-10.2-3.6-15.7-3.6c-27.1,0-44.7,28.7-32.7,52.9
			c19.7,39.6,71.4,42.6,86.8,42.6c2.4,0,3.8-0.1,3.9-0.1c2.1-0.1,4.1-1.1,5.5-2.8C175.8,157.5,217.5,107.3,194.7,61.5z M164.2,146.8
			c-13.6,0-56.9-2.7-72.5-34c-5.2-10.4-0.9-23,9.4-28.1c2.9-1.5,6.1-2.2,9.3-2.2c4.2,0,8.3,1.2,11.8,3.6c0.5,0.3,1,0.6,1.6,0.8
			c0.9,0.4,2.9,1,5.2,1c1.9,0,3.7-0.4,5.3-1.2c4.2-2.1,5.9-6.2,6.4-8c0.2-0.6,0.3-1.3,0.4-2c1.1-21.5,30.1-27.5,39.7-8.3
			C196.4,99.8,171.8,136.7,164.2,146.8z"/>
	</g>
</g>
<g>
	<g>
		<path class="st0" d="M500.9,207.3c-0.1-0.1-0.1-0.1-0.2-0.2c-15.7-14.5-36.7-12.9-54.7,4l-79.7,66.1c-4.6-9.8-14.2-19.5-32.4-19.5
			h-72.3c-15.2,0-28.6,4.8-30.1,5.4c-0.1,0-0.1,0-0.2,0.1l-50.7,20.4l-0.4-1.1c-2.5-6.6-9-11.1-16.1-11.1c-2.1,0-4.1,0.4-6.1,1.1
			L11.9,327.6c-4.6,1.7-8.3,5.2-10.3,9.6c-2,4.5-2.2,9.5-0.5,14.1l50.9,135.1c2.7,7.1,9.6,11.9,17.2,11.9h0c2.2,0,4.4-0.4,6.5-1.2
			l105.8-39.9c0,0,0,0,0,0l40.3-15.2c4.3-1.6,7.7-4.8,9.6-9c1.9-4.2,2-8.8,0.4-13.1l-0.7-1.8l21.4-8.4c0,0,0,0,0,0l0.7-0.3
			c2.2-0.8,9.9-3.3,21.7-3.3h9.9c4.3,0,7.8-3.5,7.8-7.8s-3.5-7.8-7.8-7.8h-9.9c-14.1,0-23.7,3-27.2,4.3c0,0-0.1,0-0.1,0l-0.8,0.3
			c0,0,0,0,0,0l-21.3,8.4l-34.1-90.4l-5.6-14.9l51-20.5c0.9-0.3,12.1-4.4,24.6-4.4h72.3c18.1,0,20.1,15,20.3,18c0,0,0,0.1,0,0.1
			c0,0.1,0,0.1,0,0.2c0,0.1,0.7,10.6-4.9,16.7c-3,3.3-7.5,4.9-13.6,4.9h-60.9c-4.3,0-7.8,3.5-7.8,7.8s3.5,7.8,7.8,7.8h60.9
			c10.6,0,19-3.3,25.1-9.9c7.3-8,8.8-18.4,9-24.2L456,223c0.1-0.1,0.2-0.2,0.3-0.2l0.4-0.3c8.5-8,21.3-15.1,33.5-4
			c13.8,13.7,1.1,30-1.8,33.4L378.8,369.5c0,0,0,0,0,0c-0.1,0.1-0.1,0.1-0.2,0.2c-15.3,17.5-35.9,20.4-44.3,20.8h-12.9
			c-4.3,0-7.8,3.5-7.8,7.8s3.5,7.8,7.8,7.8h13.1c0.1,0,0.2,0,0.4,0c10.2-0.5,36.1-4,55.4-26.1l109.5-117.6c0.1-0.1,0.1-0.1,0.2-0.2
			C509.7,251.1,520.9,226.9,500.9,207.3z M70.3,482.6c-0.3,0.1-0.7,0.2-1,0.2c-1,0-2.2-0.6-2.7-1.8L15.8,345.9
			c-0.4-1-0.1-1.8,0.1-2.2c0.2-0.4,0.6-1.1,1.6-1.5l98.6-37.1l52.9,140.4L70.3,482.6z M217.5,425.5c0.2,0.5,0.1,0.9,0,1.2
			c-0.1,0.3-0.4,0.6-0.9,0.8L183.5,440l-52.9-140.4l33.1-12.5c0.2-0.1,0.4-0.1,0.6-0.1c0.5,0,1.2,0.3,1.5,1L217.5,425.5z"/>
	</g>
</g>
<g>
	<g>
		<path class="st0" d="M436.4,105.5c0-0.2,0-0.3,0-0.5c0-0.1,0-0.2,0-0.4c0-0.1,0-0.2-0.1-0.4c0-0.2-0.1-0.3-0.1-0.4
			c0,0,0-0.1,0-0.1c0-0.1-0.1-0.2-0.1-0.3c0,0,0-0.1,0-0.1c-4.3-16.5-15.5-30.2-30.7-37.8c-18.7-9.3-41-8-58.5,3.3
			c-0.1,0-0.3,0.1-0.5,0.1c-0.1-0.1-0.2-0.3-0.2-0.5c-1.5-20.8-13.9-39.4-32.5-48.7c-14.1-7-30.1-8.1-45.1-3.1
			c-14.9,5-27,15.5-34.1,29.6c-16.2,32.5-15,72,3.4,114.2c13.7,31.3,31.8,52.9,32.5,53.8c1.4,1.6,3.4,2.6,5.5,2.8
			c0.3,0,2.7,0.1,6.8,0.1c10.4,0,31.6-0.8,55.4-6.5c44.6-10.5,76.8-33.1,93.2-65.2c2-3.8,0.4-8.5-3.4-10.5c-3.8-2-8.5-0.4-10.5,3.4
			c-31.1,61-118.8,63.3-137.2,63.1c-5.1-6.5-18.1-24.5-28.2-47.7c-16.6-38.2-17.8-72.1-3.6-100.6c5.2-10.4,14.1-18.1,25.1-21.8
			c11-3.7,22.8-2.9,33.2,2.3c14,7,23.2,21,24,36.6c0,0.6,0.1,1.3,0.3,1.9c0.6,2.2,2.6,8,8.4,10.8c5.9,2.9,11.9,0.9,13.8,0.1
			c0.5-0.2,1-0.5,1.5-0.8c13-8.7,29.7-9.8,43.7-2.9c8.2,4.1,14.7,10.5,18.9,18.4l1.7,3.6l1.4,3.5c0.1,0.3,0.2,0.6,0.3,0.9l0,0
			c1.3,3.1,4.1,7.7,9.2,7.4c0.1,0,0.3-0.1,0.4-0.1c0,0,0.1,0,0.1,0c0.1,0,0.1,0,0.2,0c0.2,0,0.3-0.1,0.5-0.1c0.1,0,0.2-0.1,0.3-0.1
			c0.1-0.1,0.3-0.1,0.4-0.2c0.1,0,0.2-0.1,0.3-0.2c0.1-0.1,0.2-0.1,0.3-0.2c0.1-0.1,0.2-0.1,0.3-0.2c0.1-0.1,0.2-0.1,0.3-0.2
			c0.1-0.1,0.2-0.2,0.3-0.3c0.1-0.1,0.2-0.1,0.2-0.2c0.1-0.1,0.2-0.2,0.3-0.3c0.1-0.1,0.2-0.2,0.2-0.2c0.1-0.1,0.2-0.2,0.3-0.3
			c0.1-0.1,0.2-0.2,0.2-0.3c0.1-0.1,0.1-0.2,0.2-0.3c0.1-0.1,0.2-0.2,0.2-0.3c0.1-0.1,0.1-0.2,0.2-0.3c0.1-0.1,0.1-0.2,0.2-0.4
			c0-0.1,0.1-0.2,0.1-0.3c0.1-0.1,0.1-0.3,0.2-0.4c0-0.1,0.1-0.2,0.1-0.3c0-0.1,0.1-0.3,0.1-0.4c0-0.1,0.1-0.2,0.1-0.4
			c0-0.1,0-0.2,0.1-0.3c0-0.1,0-0.3,0.1-0.4c0-0.1,0-0.2,0-0.3c0-0.2,0-0.3,0-0.5c0-0.1,0-0.1,0-0.2
			C436.4,105.6,436.4,105.6,436.4,105.5z"/>
	</g>
</g>
</svg>
