<?xml version="1.0" encoding="utf-8"?>
<!-- Generator: Adobe Illustrator 21.1.0, SVG Export Plug-In . SVG Version: 6.00 Build 0)  -->
<svg version="1.1" id="Capa_1" xmlns="http://www.w3.org/2000/svg" xmlns:xlink="http://www.w3.org/1999/xlink" x="0px" y="0px"
	 viewBox="0 0 34.7 34.7" style="enable-background:new 0 0 34.7 34.7;" xml:space="preserve">
<style type="text/css">
	.st0{fill:#010002;}
</style>
<g>
	<g>
		<path class="st0" d="M15.5,32.9C7,32.9,0,25.9,0,17.3S7,1.8,15.5,1.8s15.5,7,15.5,15.5c0,0.5-0.4,0.9-0.9,0.9
			c-0.5,0-0.9-0.4-0.9-0.9c0-7.6-6.2-13.8-13.8-13.8C7.9,3.6,1.8,9.7,1.8,17.3s6.2,13.8,13.8,13.8c4.9,0,9.4-2.6,11.9-6.8
			c0.2-0.4,0.8-0.6,1.2-0.3c0.4,0.2,0.6,0.8,0.3,1.2C26.1,29.9,21,32.9,15.5,32.9z"/>
	</g>
	<g>
		<path class="st0" d="M30.2,18.2c-0.2,0-0.3,0-0.5-0.1l-5.6-3.3c-0.4-0.2-0.6-0.8-0.3-1.2c0.3-0.4,0.8-0.6,1.2-0.3l4.9,2.9l3.1-4.5
			c0.3-0.4,0.8-0.5,1.2-0.2c0.4,0.3,0.5,0.8,0.2,1.2l-3.6,5.1C30.7,18.1,30.5,18.2,30.2,18.2z"/>
	</g>
</g>
</svg>
