<?xml version="1.0" encoding="iso-8859-1"?>
<!-- Generator: Adobe Illustrator 19.0.0, SVG Export Plug-In . SVG Version: 6.00 Build 0)  -->
<svg version="1.1" id="Capa_1" xmlns="http://www.w3.org/2000/svg" xmlns:xlink="http://www.w3.org/1999/xlink" x="0px" y="0px"
	 viewBox="0 0 512 512" style="enable-background:new 0 0 512 512;" xml:space="preserve">
<g>
	<g>
		<path d="M421.897,219.083l-25.936-13.884c-2.923-28.207-14.128-54.461-32.597-76.236c-17.702-20.871-40.543-35.839-66.414-43.669
			c0.22-10.72-3.857-20.913-11.483-28.704c-7.729-7.896-18.47-12.425-29.467-12.425c-10.998,0-21.738,4.529-29.467,12.425
			c-7.626,7.791-11.703,17.983-11.483,28.704c-25.885,7.833-48.734,22.811-66.439,43.698c-18.469,21.788-29.669,48.054-32.58,76.273
			l-25.912,13.811c-3.26,1.737-5.296,5.13-5.296,8.825v40.434c0,3.075,1.414,5.979,3.836,7.874c2.421,1.895,5.579,2.572,8.564,1.833
			l27.686-6.846c11.926,30.488,34.21,55.958,62.853,71.858v33.466c0,3.232,1.562,6.265,4.193,8.142
			c2.631,1.876,6.007,2.366,9.064,1.313L256,367.034l54.981,18.94c1.062,0.366,2.162,0.545,3.256,0.545
			c2.056,0,4.09-0.634,5.808-1.858c2.631-1.877,4.193-4.91,4.193-8.142v-33.467c28.643-15.901,50.926-41.371,62.852-71.857
			l27.687,6.846c2.982,0.738,6.143,0.063,8.564-1.833c2.421-1.895,3.836-4.799,3.836-7.874V227.9
			C427.177,224.212,425.148,220.824,421.897,219.083z M296.504,106.214c38.717,13.868,68.085,47.196,77.223,87.082l-78.193-41.858
			L296.504,106.214z M215.498,106.214l0.518,24.211l0.608,21.225l-78.379,41.774C147.349,153.479,176.733,120.097,215.498,106.214z
			 M200.281,327.079c-25.153-13.103-44.91-34.676-55.765-60.733l74.056-18.313l1.512,61.901L200.281,327.079z M311.719,327.079
			l-19.803-17.145l1.512-61.901l74.055,18.313C356.629,292.401,336.873,313.973,311.719,327.079z M286.135,225.627
			c-2.94-0.727-6.059-0.081-8.468,1.759c-2.41,1.84-3.856,4.673-3.93,7.705l-1.931,79.071c-0.073,2.986,1.193,5.849,3.451,7.804
			l28.401,24.589c0.015,0.013,0.03,0.026,0.045,0.039l0.534,0.462v15.44l-44.982-15.495c-1.055-0.364-2.156-0.546-3.257-0.546
			s-2.202,0.182-3.257,0.546l-44.982,15.495v-15.44l0.535-0.463c0.015-0.013,0.03-0.026,0.044-0.039l28.401-24.589
			c2.259-1.955,3.524-4.818,3.452-7.804l-1.932-79.071c-0.074-3.031-1.52-5.865-3.93-7.705c-2.409-1.84-5.524-2.487-8.468-1.759
			l-121.042,29.932V233.9l126.678-67.516c3.351-1.786,5.401-5.316,5.293-9.111l-1.748-72.365c-0.001-0.006,0,0,0-0.006
			c-0.113-5.313,1.939-10.399,5.78-14.324c3.99-4.077,9.521-6.414,15.174-6.414c5.652,0,11.183,2.338,15.174,6.415
			c3.842,3.924,5.895,9.011,5.78,14.322c0,0.011,0.001,0,0,0.011l-1.548,72.23c-0.08,3.764,1.96,7.254,5.278,9.031l126.492,67.714
			v21.671L286.135,225.627z"/>
	</g>
</g>
<g>
	<g>
		<path d="M411.524,64.42C369.982,22.878,314.749,0,256,0c-58.749,0-113.982,22.878-155.524,64.42
			c-41.541,41.542-64.419,96.774-64.419,155.523c0,58.749,22.878,113.982,64.419,155.523l123.179,123.179
			C232.267,507.257,243.754,512,256,512c12.246,0,23.733-4.743,32.345-13.354l123.179-123.179
			c41.541-41.542,64.419-96.774,64.419-155.523C475.943,161.194,453.065,105.961,411.524,64.42z M397.381,361.324L274.203,484.503
			C269.369,489.337,262.904,492,256,492s-13.369-2.663-18.203-7.497L114.619,361.324C76.855,323.56,56.057,273.35,56.057,219.943
			s20.797-103.617,58.562-141.381C152.383,40.798,202.593,20,256,20c53.407,0,103.617,20.798,141.381,58.563
			c37.764,37.764,58.562,87.974,58.562,141.381C455.943,273.35,435.145,323.561,397.381,361.324z"/>
	</g>
</g>
<g>
	<g>
		<path d="M156.551,86.985c-3.568-4.215-9.878-4.74-14.094-1.172c-15.495,13.116-28.498,28.681-38.648,46.263
			c-2.762,4.783-1.123,10.899,3.66,13.66c1.575,0.91,3.294,1.342,4.991,1.342c3.456,0,6.817-1.794,8.669-5.002
			c8.996-15.581,20.519-29.375,34.25-40.997C159.594,97.511,160.119,91.201,156.551,86.985z"/>
	</g>
</g>
<g>
	<g>
		<path d="M181.766,71.458c-2.747-4.786-8.89-6.421-13.681-3.679l-0.194,0.111c-4.775,2.775-6.356,8.872-3.581,13.647
			c1.854,3.189,5.215,4.961,8.667,4.961c1.718,0,3.458-0.439,5.045-1.362c0.006-0.003,0.091-0.052,0.097-0.055
			C182.903,82.328,184.513,76.244,181.766,71.458z"/>
	</g>
</g>
<g>
</g>
<g>
</g>
<g>
</g>
<g>
</g>
<g>
</g>
<g>
</g>
<g>
</g>
<g>
</g>
<g>
</g>
<g>
</g>
<g>
</g>
<g>
</g>
<g>
</g>
<g>
</g>
<g>
</g>
</svg>
